{
  "http_interactions": [
    {
      "response": {
        "body": {
          "encoding": null,
          "string": "{\"data\":[{\"id\":\"530356\",\"type\":\"projects\",\"attributes\":{\"name\":\" blask\",\"number\":\"633\",\"preferences\":{\"navigation_order\":[\"-1-project-tasks\",\"-1-project-docs\",\"-1-project-budgets\",\"time\",\"reports\",\"feed\"]},\"project_number\":\"633\",\"project_type_id\":2,\"project_color_id\":5,\"last_activity_at\":\"2026-03-23T18:11:47.000+01:00\",\"tag_colors\":{},\"archived_at\":null,\"created_at\":\"2024-07-15T13:32:00.459+02:00\",\"template\":false,\"duplication_status\":\"idle\",\"custom_fields\":null,\"task_custom_fields_ids\":[\"7137\",\"7142\"],\"task_custom_fields_positions\":{\"7137\":1,\"7142\":2},\"page_custom_fields_ids\":null,\"page_custom_fields_positions\":null,\"sample_data\":false},\"relationships\":{\"organization\":{\"data\":{\"type\":\"organizations\",\"id\":\"10\"}},\"company\":{\"meta\":{\"included\":false}},\"project_manager\":{\"meta\":{\"included\":false}},\"last_actor\":{\"meta\":{\"included\":false}},\"workflow\":{\"meta\":{\"included\":false}},\"custom_field_people\":{\"meta\":{\"included\":false}},\"custom_field_attachments\":{\"meta\":{\"included\":false}},\"template_object\":{\"meta\":{\"included\":false}}}},{\"id\":\"136819\",\"type\":\"projects\",\"attributes\":{\"name\":\" duplicat tests\",\"number\":\"265\",\"preferences\":{\"navigation_order\":[\"158595-project-tasks\",\"158597-project-tasks\"]},\"project_number\":\"265\",\"project_type_id\":2,\"project_color_id\":1,\"last_activity_at\":\"2022-05-16T12:36:08.000+02:00\",\"tag_colors\":{},\"archived_at\":\"2021-09-20T12:44:03.000+02:00\",\"created_at\":\"2021-07-12T12:42:18.581+02:00\",\"template\":false,\"duplication_status\":\"idle\",\"custom_fields\":{\"7139\":\"24692\"},\"task_custom_fields_ids\":null,\"task_custom_fields_positions\":{},\"page_custom_fields_ids\":null,\"page_custom_fields_positions\":null,\"sample_data\":false},\"relationships\":{\"organization\":{\"data\":{\"type\":\"organizations\",\"id\":\"10\"}},\"company\":{\"meta\":{\"included\":false}},\"project_manager\":{\"meta\":{\"included\":false}},\"last_actor\":{\"meta\":{\"included\":false}},\"workflow\":{\"meta\":{\"included\":false}},\"custom_field_people\":{\"meta\":{\"included\":false}},\"custom_field_attachments\":{\"meta\":{\"included\":false}},\"template_object\":{\"meta\":{\"included\":false}}}},{\"id\":\"7334\",\"type\":\"projects\",\"attributes\":{\"name\":\"_blank\",\"number\":\"154\",\"preferences\":{\"navigation_order\":[\"154283-project-tasks\",\"116626-project-new_booking_reports\"]},\"project_number\":\"154\",\"project_type_id\":1,\"project_color_id\":9,\"last_activity_at\":\"2023-06-17T15:33:36.000+02:00\",\"tag_colors\":{},\"archived_at\":\"2021-11-09T11:11:40.000+01:00\",\"created_at\":\"2018-01-17T10:41:53.883+01:00\",\"template\":false,\"duplication_status\":\"idle\",\"custom_fields\":{\"73\":\"211\",\"103\":\"123213\",\"7139\":\"24693\"},\"task_custom_fields_ids\":null,\"task_custom_fields_positions\":{},\"page_custom_fields_ids\":null,\"page_custom_fields_positions\":null,\"sample_data\":false},\"relationships\":{\"organization\":{\"data\":{\"type\":\"organizations\",\"id\":\"10\"}},\"company\":{\"meta\":{\"included\":false}},\"project_manager\":{\"meta\":{\"included\":false}},\"last_actor\":{\"meta\":{\"included\":false}},\"workflow\":{\"meta\":{\"included\":false}},\"custom_field_people\":{\"meta\":{\"included\":false}},\"custom_field_attachments\":{\"meta\":{\"included\":false}},\"template_object\":{\"meta\":{\"included\":false}}}},{\"id\":\"4248\",\"type\":\"projects\",\"attributes\":{\"name\":\"_New project\",\"number\":\"71\",\"preferences\":{},\"project_number\":\"71\",\"project_type_id\":2,\"project_color_id\":null,\"last_activity_at\":\"2016-09-07T11:45:23.000+02:00\",\"tag_colors\":{},\"archived_at\":\"2016-09-07T11:45:23.000+02:00\",\"created_at\":\"2016-07-05T20:36:20.000+02:00\",\"template\":false,\"duplication_status\":\"idle\",\"custom_fields\":null,\"task_custom_fields_ids\":null,\"task_custom_fields_positions\":{},\"page_custom_fields_ids\":null,\"page_custom_fields_positions\":null,\"sample_data\":false},\"relationships\":{\"organization\":{\"data\":{\"type\":\"organizations\",\"id\":\"10\"}},\"company\":{\"meta\":{\"included\":false}},\"project_manager\":{\"meta\":{\"included\":false}},\"last_actor\":{\"meta\":{\"included\":false}},\"workflow\":{\"meta\":{\"included\":false}},\"custom_field_people\":{\"meta\":{\"included\":false}},\"custom_field_attachments\":{\"meta\":{\"included\":false}},\"template_object\":{\"meta\":{\"included\":false}}}},{\"id\":\"20973\",\"type\":\"projects\",\"attributes\":{\"name\":\"_template\",\"number\":\"202\",\"preferences\":{},\"project_number\":\"202\",\"project_type_id\":1,\"project_color_id\":null,\"last_activity_at\":\"2023-06-17T15:33:37.000+02:00\",\"tag_colors\":{},\"archived_at\":\"2020-10-29T17:01:20.000+01:00\",\"created_at\":\"2019-01-16T01:06:59.134+01:00\",\"template\":false,\"duplication_status\":\"idle\",\"custom_fields\":{\"73\":\"8535\",\"239\":4},\"task_custom_fields_ids\":null,\"task_custom_fields_positions\":{},\"page_custom_fields_ids\":null,\"page_custom_fields_positions\":null,\"sample_data\":false},\"relationships\":{\"organization\":{\"data\":{\"type\":\"organizations\",\"id\":\"10\"}},\"company\":{\"meta\":{\"included\":false}},\"project_manager\":{\"meta\":{\"included\":false}},\"last_actor\":{\"meta\":{\"included\":false}},\"workflow\":{\"meta\":{\"included\":false}},\"custom_field_people\":{\"meta\":{\"included\":false}},\"custom_field_attachments\":{\"meta\":{\"included\":false}},\"template_object\":{\"meta\":{\"included\":false}}}}],\"links\":{\"first\":\"https://api.productive.io/api/v2/projects?filter%5B%24op%5D=or\\u0026filter%5B0%5D%5Bstatus%5D%5Beq%5D%5B%5D=1\\u0026filter%5B1%5D%5B%24op%5D=and\\u0026filter%5B1%5D%5B0%5D%5Bstatus%5D%5Beq%5D%5B%5D=2\\u0026page%5Bnumber%5D=1\\u0026page%5Bsize%5D=5\",\"last\":\"https://api.productive.io/api/v2/projects?filter%5B%24op%5D=or\\u0026filter%5B0%5D%5Bstatus%5D%5Beq%5D%5B%5D=1\\u0026filter%5B1%5D%5B%24op%5D=and\\u0026filter%5B1%5D%5B0%5D%5Bstatus%5D%5Beq%5D%5B%5D=2\\u0026page%5Bnumber%5D=183\\u0026page%5Bsize%5D=5\",\"next\":\"https://api.productive.io/api/v2/projects?filter%5B%24op%5D=or\\u0026filter%5B0%5D%5Bstatus%5D%5Beq%5D%5B%5D=1\\u0026filter%5B1%5D%5B%24op%5D=and\\u0026filter%5B1%5D%5B0%5D%5Bstatus%5D%5Beq%5D%5B%5D=2\\u0026page%5Bnumber%5D=2\\u0026page%5Bsize%5D=5\"},\"meta\":{\"current_page\":1,\"total_pages\":183,\"total_count\":915,\"page_size\":5,\"max_page_size\":200,\"settings\":{\"systemFlags\":{\"setting_type\":\"systemFlags\",\"value\":\"[\\\"budgetOriginDealId\\\",\\\"dealMultipleSalesPipelines\\\",\\\"exportComparator\\\",\\\"serviceTrackingControlsValidation\\\",\\\"patchSave\\\",\\\"sequentialDataLoadingInKanban\\\",\\\"permissionsTimeOffBookings\\\",\\\"docsUnrestrictedSharing\\\",\\\"enableDealViewSharing\\\",\\\"enableBudgetViewSharing\\\",\\\"membershipNotificationRefactor\\\",\\\"dayEntriesMobileDrawer\\\",\\\"timeEntryImportDealClientFields\\\",\\\"templatesTypesAndCreators\\\",\\\"allowBookingsOutsideBudgetDate\\\",\\\"convertDateParamsToPersonTimezone\\\",\\\"serviceRolloverTime\\\",\\\"timerPolicyUpdate\\\",\\\"seeMyCompany\\\",\\\"newOnboardingVisuals\\\",\\\"roundingSettingsOnDeal\\\",\\\"rateCardPermissions\\\",\\\"allPayrollReportItems\\\",\\\"paramsStruct\\\",\\\"reducedDashboardShareTypes\\\",\\\"reportsQueryFields\\\",\\\"startDateReminder\\\",\\\"defaultBudgetFieldFinanicalReport\\\",\\\"peopleCustomFieldsMigration\\\",\\\"automationsBudgetDecorator\\\",\\\"invoiceInlineCustomFields\\\",\\\"automationsInvoiceProjects\\\",\\\"enableBookingViewSharing\\\",\\\"recognizedScheduledTime\\\",\\\"timeEntryApprovePermissionsSync\\\",\\\"resourcingDisablePendingBookings\\\",\\\"attributeMentionsField\\\",\\\"personTimeOverviewCombo\\\",\\\"automationsCreateInvoice\\\",\\\"vsDataTableCellPartialPatchSave\\\",\\\"projectNavigationRedesign\\\",\\\"serviceReportSectionId\\\",\\\"aiFiltersTasksModule\\\",\\\"intercompanyHoursInTimeEntryReport\\\",\\\"docsUnloadedWithUnsavedChangesRecovery\\\",\\\"capacityAndAvailabilityReportSparseFieldset\\\",\\\"enableTaxIdValidation\\\",\\\"budgetApprovalPolicies\\\",\\\"eInvoiceSendViaEmail\\\",\\\"reportsBetterGroupSerialization\\\",\\\"copyExpenseTaxToQuickbooks\\\",\\\"productivization\\\",\\\"emailInbox\\\",\\\"peppol\\\",\\\"dealServicesRedesign\\\",\\\"aiReports\\\",\\\"dealProposals\\\",\\\"scimExpandProvisioningScope\\\",\\\"userOffboarding\\\",\\\"privateFolders\\\",\\\"expenseCustomFileFields\\\",\\\"invoiceCustomFileFields\\\",\\\"expenseSparseFieldset\\\",\\\"invoiceSparseFieldset\\\",\\\"taskTemplates\\\",\\\"companyContactEntryTable\\\",\\\"preventBudgetOverrun\\\",\\\"bambooUserProvisioning\\\",\\\"automationsBookingTrigger\\\",\\\"automationsExpenseTrigger\\\",\\\"automationsCompanyTrigger\\\",\\\"schedulingOnTasks\\\",\\\"simpleBudgetEditorInternalBudgetChanges\\\",\\\"requestForResource\\\",\\\"projectDashboards\\\",\\\"automationStartAiAgentAction\\\",\\\"automationsHTTPRequest\\\",\\\"unifiedBilling\\\",\\\"settingsSeparateCardEdit\\\",\\\"newDesktopTimer\\\",\\\"aiAgentReportBuilderAgent\\\",\\\"throttledHubspotImporterJob\\\",\\\"enforceDealServicesRedesign\\\",\\\"disableProjectAssignmentsEndpoint\\\",\\\"removeRoleAccessCheck\\\",\\\"implicitPermissionsRefactor\\\",\\\"aiAgentAutomationAgent\\\",\\\"outlook\\\",\\\"invoiceRoundingMethods\\\",\\\"planhatIntegration\\\",\\\"reportsFilteringOnFormulas\\\",\\\"useNewEinvoicingModels\\\",\\\"hideDealProperties\\\",\\\"simpleEditorUpgrades\\\",\\\"aiAgentSidebarRevamp\\\",\\\"aiTaxRateAutofill\\\",\\\"aiAgentProjectManagementAgent\\\",\\\"merIntegration\\\",\\\"drilldownModalPadding\\\",\\\"taskLinkToMention\\\",\\\"workflowsMultipleClosedStatuses\\\",\\\"docsHorizontalAlign\\\",\\\"productiveAcademy\\\",\\\"applyDealScenario\\\",\\\"dealForecastingChartUpdate\\\",\\\"dealWizardRemoveProjectStep\\\",\\\"automationsDeliverBudget\\\",\\\"xeroPurchaseOrders\\\",\\\"automationsRunNow\\\",\\\"insertAttachmentInlineAction\\\",\\\"calculateEstimatedTimeOnServices\\\",\\\"docsVerticalTextAlignment\\\",\\\"signupImprovements\\\",\\\"xeroUseInvoicingExport\\\",\\\"employeesFavoriteFilter\\\",\\\"outlookEmailFolders\\\",\\\"reportsFieldsAndIncludes\\\",\\\"dealFunnelReportPermission\\\",\\\"paramsStructIncludes\\\",\\\"einvoiceSettingsPerCountry\\\",\\\"resolvedPermissions\\\",\\\"reactionsInDocsComments\\\",\\\"exporterCsvStreaming\\\",\\\"docsColumns\\\",\\\"newColumnMenuLayout\\\",\\\"calendarEventsOnDayView\\\",\\\"reportsBetterPreloaderPerformance\\\",\\\"noIncludesOnPreferencesPatch\\\",\\\"approvalPoliciesDynamicProjectManagerRole\\\",\\\"resourcingBookingContextMenu\\\",\\\"exportWholeDocs\\\",\\\"drilldownMetricChart\\\",\\\"serviceReportPermissionsRefactor\\\",\\\"projectDashboardTemplates\\\",\\\"archiveServiceTypes\\\",\\\"surveyResponsesExport\\\",\\\"aiAgentMarkdown\\\",\\\"projectNavigationModulesPicker\\\",\\\"hubspotReduceDesync\\\",\\\"servicesImplicitDealPermissionsRefactor\\\",\\\"changeBccAddress\\\",\\\"slackAppMentioningScopes\\\",\\\"manualRevenueRecognition\\\",\\\"manDayMinutesFreeInput\\\",\\\"automationsRecap\\\",\\\"skipBoardTaskListMoveCallbacks\\\",\\\"gmailEmailFolders\\\",\\\"skipDelayedBroadcast\\\",\\\"taskHeaderBreadcrumbs\\\",\\\"quickStartImprovements\\\",\\\"aiSearchIncludePageStructure\\\",\\\"dealReportAgingFields\\\",\\\"aiAgentModelGpt52\\\",\\\"parentCompany\\\",\\\"validateCustomFieldTypes\\\",\\\"bookingConflictResolver\\\",\\\"bookingsImplicitServicePermissionsRefactor\\\",\\\"documentsProposalsCreatedDate\\\",\\\"compactChartWidgetControls\\\",\\\"stackedCharts\\\",\\\"aiAgentSkillsArchitecture\\\",\\\"automationNewJsonSchema\\\",\\\"resourcingVisuallyExcludeNonWorkingBookingDays\\\",\\\"dashboardAutosave\\\",\\\"sendProposalOptimisation\\\",\\\"projectsApplyTabsFromTemplate\\\",\\\"reportsOptionalScopes\\\",\\\"refactorAutomationConditionParsing\\\",\\\"docsMarkdownSupport\\\",\\\"proposalReport\\\",\\\"viewYourOwnAbsenceDetails\\\",\\\"resourcingDragDebounce\\\",\\\"lastActivityOnCompanies\\\",\\\"resourcingDeprecateExpectedHours\\\",\\\"timesheetsReportPersonSorter\\\",\\\"automationsOnExpenseImport\\\",\\\"quoteCurrencyUpdaterOptimization\\\",\\\"scenarioItemsBulkSave\\\",\\\"aiAgentSearchOrganizationDataStable\\\",\\\"aiAgentResolverNanoModel\\\",\\\"resourcingDynamicIncludes\\\",\\\"aiAgentSearchProjectDataStable\\\",\\\"mailerScopedIncludes\\\",\\\"aiAgentAutomationBuilderNewJsonSchema\\\",\\\"aiAgentLazyContext\\\",\\\"aiAgentGpt54\\\",\\\"automationsOnCopyingTasksAndSubtasks\\\",\\\"serviceTypeOptimization\\\",\\\"optimizedScenarioIncludes\\\",\\\"migrateAutomationCurrency\\\",\\\"migrateAutomationInteger\\\",\\\"aiAssistantFullscreen\\\"]\",\"updated_at\":\"2025-09-15T14:27:54.393+02:00\"},\"taxMandatoryCountries\":{\"setting_type\":\"json\",\"value\":\"[\\\"AT\\\", \\\"BE\\\", \\\"BG\\\", \\\"HR\\\", \\\"CA\\\", \\\"CH\\\", \\\"CY\\\", \\\"CZ\\\", \\\"DK\\\", \\\"EE\\\", \\\"FI\\\", \\\"FR\\\", \\\"DE\\\", \\\"GR\\\", \\\"HU\\\", \\\"IE\\\", \\\"IT\\\", \\\"LV\\\", \\\"LT\\\", \\\"LU\\\", \\\"MT\\\", \\\"NL\\\", \\\"PL\\\", \\\"PT\\\", \\\"RO\\\", \\\"SK\\\", \\\"SI\\\", \\\"ES\\\", \\\"SE\\\", \\\"GB\\\"]\",\"updated_at\":\"2025-07-15T14:03:33.143+02:00\"},\"taxIdsPerCountry\":{\"setting_type\":\"json\",\"value\":\"{\\n  \\\"AL\\\": [{ \\\"tax_id_code\\\": \\\"al_tin\\\", \\\"example\\\": \\\"J12345678N\\\" }],\\n  \\\"AD\\\": [{ \\\"tax_id_code\\\": \\\"ad_nrt\\\", \\\"example\\\": \\\"A-123456-Z\\\" }],\\n  \\\"AO\\\": [{ \\\"tax_id_code\\\": \\\"ao_tin\\\", \\\"example\\\": \\\"5123456789\\\" }],\\n  \\\"AR\\\": [{ \\\"tax_id_code\\\": \\\"ar_cuit\\\", \\\"example\\\": \\\"12-3456789-01\\\" }],\\n  \\\"AM\\\": [{ \\\"tax_id_code\\\": \\\"am_tin\\\", \\\"example\\\": \\\"02538904\\\" }],\\n  \\\"AU\\\": [\\n    { \\\"tax_id_code\\\": \\\"au_abn\\\", \\\"example\\\": \\\"12345678912\\\" },\\n    { \\\"tax_id_code\\\": \\\"au_arn\\\", \\\"example\\\": \\\"123456789123\\\" }\\n  ],\\n  \\\"AT\\\": [{ \\\"tax_id_code\\\": \\\"eu_vat\\\", \\\"example\\\": \\\"ATU12345678\\\" }],\\n  \\\"BS\\\": [{ \\\"tax_id_code\\\": \\\"bs_tin\\\", \\\"example\\\": \\\"123.456.789\\\" }],\\n  \\\"BH\\\": [{ \\\"tax_id_code\\\": \\\"bh_vat\\\", \\\"example\\\": \\\"123456789012345\\\" }],\\n  \\\"BB\\\": [{ \\\"tax_id_code\\\": \\\"bb_tin\\\", \\\"example\\\": \\\"1123456789012\\\" }],\\n  \\\"BY\\\": [{ \\\"tax_id_code\\\": \\\"by_tin\\\", \\\"example\\\": \\\"123456789\\\" }],\\n  \\\"BE\\\": [{ \\\"tax_id_code\\\": \\\"eu_vat\\\", \\\"example\\\": \\\"BE0123456789\\\" }],\\n  \\\"BO\\\": [{ \\\"tax_id_code\\\": \\\"bo_tin\\\", \\\"example\\\": \\\"123456789\\\" }],\\n  \\\"BA\\\": [{ \\\"tax_id_code\\\": \\\"ba_tin\\\", \\\"example\\\": \\\"123456789012\\\" }],\\n  \\\"BR\\\": [\\n    { \\\"tax_id_code\\\": \\\"br_cnpj\\\", \\\"example\\\": \\\"01.234.456/5432-10\\\" },\\n    { \\\"tax_id_code\\\": \\\"br_cpf\\\", \\\"example\\\": \\\"123.456.789-87\\\" }\\n  ],\\n  \\\"BG\\\": [\\n    { \\\"tax_id_code\\\": \\\"bg_uic\\\", \\\"example\\\": \\\"123456789\\\" },\\n    { \\\"tax_id_code\\\": \\\"eu_vat\\\", \\\"example\\\": \\\"BG0123456789\\\" }\\n  ],\\n  \\\"KH\\\": [{ \\\"tax_id_code\\\": \\\"kh_tin\\\", \\\"example\\\": \\\"1001-123456789\\\" }],\\n  \\\"CA\\\": [\\n    { \\\"tax_id_code\\\": \\\"ca_bn\\\", \\\"example\\\": \\\"123456789\\\" },\\n    { \\\"tax_id_code\\\": \\\"ca_gst_hst\\\", \\\"example\\\": \\\"123456789RT0002\\\" },\\n    { \\\"tax_id_code\\\": \\\"ca_pst_bc\\\", \\\"example\\\": \\\"PST-1234-5678\\\" },\\n    { \\\"tax_id_code\\\": \\\"ca_pst_mb\\\", \\\"example\\\": \\\"123456-7\\\" },\\n    { \\\"tax_id_code\\\": \\\"ca_pst_sk\\\", \\\"example\\\": \\\"1234567\\\" },\\n    { \\\"tax_id_code\\\": \\\"ca_qst\\\", \\\"example\\\": \\\"1234567890TQ1234\\\" }\\n  ],\\n  \\\"CL\\\": [{ \\\"tax_id_code\\\": \\\"cl_tin\\\", \\\"example\\\": \\\"12.345.678-K\\\" }],\\n  \\\"CN\\\": [{ \\\"tax_id_code\\\": \\\"cn_tin\\\", \\\"example\\\": \\\"123456789012345678\\\" }],\\n  \\\"CO\\\": [{ \\\"tax_id_code\\\": \\\"co_nit\\\", \\\"example\\\": \\\"123.456.789-0\\\" }],\\n  \\\"CD\\\": [{ \\\"tax_id_code\\\": \\\"cd_nif\\\", \\\"example\\\": \\\"A0123456M\\\" }],\\n  \\\"CR\\\": [{ \\\"tax_id_code\\\": \\\"cr_tin\\\", \\\"example\\\": \\\"1-234-567890\\\" }],\\n  \\\"HR\\\": [\\n    { \\\"tax_id_code\\\": \\\"eu_vat\\\", \\\"example\\\": \\\"HR12345678912\\\" },\\n    { \\\"tax_id_code\\\": \\\"hr_oib\\\", \\\"example\\\": \\\"12345678901\\\" }\\n  ],\\n  \\\"CY\\\": [{ \\\"tax_id_code\\\": \\\"eu_vat\\\", \\\"example\\\": \\\"CY12345678Z\\\" }],\\n  \\\"CZ\\\": [{ \\\"tax_id_code\\\": \\\"eu_vat\\\", \\\"example\\\": \\\"CZ1234567890\\\" }],\\n  \\\"DK\\\": [{ \\\"tax_id_code\\\": \\\"eu_vat\\\", \\\"example\\\": \\\"DK12345678\\\" }],\\n  \\\"DO\\\": [{ \\\"tax_id_code\\\": \\\"do_rcn\\\", \\\"example\\\": \\\"123-4567890-1\\\" }],\\n  \\\"EC\\\": [{ \\\"tax_id_code\\\": \\\"ec_ruc\\\", \\\"example\\\": \\\"1234567890001\\\" }],\\n  \\\"EG\\\": [{ \\\"tax_id_code\\\": \\\"eg_tin\\\", \\\"example\\\": \\\"123456789\\\" }],\\n  \\\"SV\\\": [{ \\\"tax_id_code\\\": \\\"sv_nit\\\", \\\"example\\\": \\\"1234-567890-123-4\\\" }],\\n  \\\"EE\\\": [{ \\\"tax_id_code\\\": \\\"eu_vat\\\", \\\"example\\\": \\\"EE123456789\\\" }],\\n  \\\"EU\\\": [{ \\\"tax_id_code\\\": \\\"eu_oss_vat\\\", \\\"example\\\": \\\"EU123456789\\\" }],\\n  \\\"FI\\\": [{ \\\"tax_id_code\\\": \\\"eu_vat\\\", \\\"example\\\": \\\"FI12345678\\\" }],\\n  \\\"FR\\\": [{ \\\"tax_id_code\\\": \\\"eu_vat\\\", \\\"example\\\": \\\"FRAB123456789\\\" }],\\n  \\\"GE\\\": [{ \\\"tax_id_code\\\": \\\"ge_vat\\\", \\\"example\\\": \\\"123456789\\\" }],\\n  \\\"DE\\\": [\\n    { \\\"tax_id_code\\\": \\\"de_stn\\\", \\\"example\\\": \\\"1234567890\\\" },\\n    { \\\"tax_id_code\\\": \\\"eu_vat\\\", \\\"example\\\": \\\"DE123456789\\\" }\\n  ],\\n  \\\"GR\\\": [{ \\\"tax_id_code\\\": \\\"eu_vat\\\", \\\"example\\\": \\\"EL123456789\\\" }],\\n  \\\"GN\\\": [{ \\\"tax_id_code\\\": \\\"gn_nif\\\", \\\"example\\\": \\\"123456789\\\" }],\\n  \\\"HK\\\": [{ \\\"tax_id_code\\\": \\\"hk_br\\\", \\\"example\\\": \\\"12345678\\\" }],\\n  \\\"HU\\\": [\\n    { \\\"tax_id_code\\\": \\\"eu_vat\\\", \\\"example\\\": \\\"HU12345678\\\" },\\n    { \\\"tax_id_code\\\": \\\"hu_tin\\\", \\\"example\\\": \\\"12345678-1-23\\\" }\\n  ],\\n  \\\"IS\\\": [{ \\\"tax_id_code\\\": \\\"is_vat\\\", \\\"example\\\": \\\"123456\\\" }],\\n  \\\"IN\\\": [{ \\\"tax_id_code\\\": \\\"in_gst\\\", \\\"example\\\": \\\"12ABCDE3456FGZH\\\" }],\\n  \\\"ID\\\": [{ \\\"tax_id_code\\\": \\\"id_npwp\\\", \\\"example\\\": \\\"012.345.678.9-012.345\\\" }],\\n  \\\"IE\\\": [{ \\\"tax_id_code\\\": \\\"eu_vat\\\", \\\"example\\\": \\\"IE1234567AB\\\" }],\\n  \\\"IL\\\": [{ \\\"tax_id_code\\\": \\\"il_vat\\\", \\\"example\\\": \\\"000012345\\\" }],\\n  \\\"IT\\\": [{ \\\"tax_id_code\\\": \\\"eu_vat\\\", \\\"example\\\": \\\"IT12345678912\\\" }],\\n  \\\"JP\\\": [\\n    { \\\"tax_id_code\\\": \\\"jp_cn\\\", \\\"example\\\": \\\"1234567891234\\\" },\\n    { \\\"tax_id_code\\\": \\\"jp_rn\\\", \\\"example\\\": \\\"12345\\\" },\\n    { \\\"tax_id_code\\\": \\\"jp_trn\\\", \\\"example\\\": \\\"T1234567891234\\\" }\\n  ],\\n  \\\"KZ\\\": [{ \\\"tax_id_code\\\": \\\"kz_bin\\\", \\\"example\\\": \\\"123456789012\\\" }],\\n  \\\"KE\\\": [{ \\\"tax_id_code\\\": \\\"ke_pin\\\", \\\"example\\\": \\\"P000111111A\\\" }],\\n  \\\"LV\\\": [{ \\\"tax_id_code\\\": \\\"eu_vat\\\", \\\"example\\\": \\\"LV12345678912\\\" }],\\n  \\\"LI\\\": [\\n    { \\\"tax_id_code\\\": \\\"li_uid\\\", \\\"example\\\": \\\"CHE123456789\\\" },\\n    { \\\"tax_id_code\\\": \\\"li_vat\\\", \\\"example\\\": \\\"12345\\\" }\\n  ],\\n  \\\"LT\\\": [{ \\\"tax_id_code\\\": \\\"eu_vat\\\", \\\"example\\\": \\\"LT123456789123\\\" }],\\n  \\\"LU\\\": [{ \\\"tax_id_code\\\": \\\"eu_vat\\\", \\\"example\\\": \\\"LU12345678\\\" }],\\n  \\\"MY\\\": [\\n    { \\\"tax_id_code\\\": \\\"my_frp\\\", \\\"example\\\": \\\"12345678\\\" },\\n    { \\\"tax_id_code\\\": \\\"my_itn\\\", \\\"example\\\": \\\"C 1234567890\\\" },\\n    { \\\"tax_id_code\\\": \\\"my_sst\\\", \\\"example\\\": \\\"A12-3456-78912345\\\" }\\n  ],\\n  \\\"MT\\\": [{ \\\"tax_id_code\\\": \\\"eu_vat\\\", \\\"example\\\": \\\"MT12345678\\\" }],\\n  \\\"MR\\\": [{ \\\"tax_id_code\\\": \\\"mr_nif\\\", \\\"example\\\": \\\"12345678\\\" }],\\n  \\\"MX\\\": [{ \\\"tax_id_code\\\": \\\"mx_rfc\\\", \\\"example\\\": \\\"ABC010203AB9\\\" }],\\n  \\\"MD\\\": [{ \\\"tax_id_code\\\": \\\"md_vat\\\", \\\"example\\\": \\\"1234567\\\" }],\\n  \\\"ME\\\": [{ \\\"tax_id_code\\\": \\\"me_pib\\\", \\\"example\\\": \\\"12345678\\\" }],\\n  \\\"MA\\\": [{ \\\"tax_id_code\\\": \\\"ma_vat\\\", \\\"example\\\": \\\"12345678\\\" }],\\n  \\\"NP\\\": [{ \\\"tax_id_code\\\": \\\"np_pan\\\", \\\"example\\\": \\\"123456789\\\" }],\\n  \\\"NL\\\": [{ \\\"tax_id_code\\\": \\\"eu_vat\\\", \\\"example\\\": \\\"NL123456789B12\\\" }],\\n  \\\"NZ\\\": [{ \\\"tax_id_code\\\": \\\"nz_gst\\\", \\\"example\\\": \\\"123456789\\\" }],\\n  \\\"NG\\\": [{ \\\"tax_id_code\\\": \\\"ng_tin\\\", \\\"example\\\": \\\"12345678-0001\\\" }],\\n  \\\"MK\\\": [{ \\\"tax_id_code\\\": \\\"mk_vat\\\", \\\"example\\\": \\\"MK1234567890123\\\" }],\\n  \\\"NO\\\": [\\n    { \\\"tax_id_code\\\": \\\"no_vat\\\", \\\"example\\\": \\\"123456789MVA\\\" },\\n    { \\\"tax_id_code\\\": \\\"no_voec\\\", \\\"example\\\": \\\"1234567\\\" }\\n  ],\\n  \\\"OM\\\": [{ \\\"tax_id_code\\\": \\\"om_vat\\\", \\\"example\\\": \\\"OM1234567890\\\" }],\\n  \\\"PE\\\": [{ \\\"tax_id_code\\\": \\\"pe_ruc\\\", \\\"example\\\": \\\"12345678901\\\" }],\\n  \\\"PH\\\": [{ \\\"tax_id_code\\\": \\\"ph_tin\\\", \\\"example\\\": \\\"123456789012\\\" }],\\n  \\\"PL\\\": [{ \\\"tax_id_code\\\": \\\"eu_vat\\\", \\\"example\\\": \\\"PL1234567890\\\" }],\\n  \\\"PT\\\": [{ \\\"tax_id_code\\\": \\\"eu_vat\\\", \\\"example\\\": \\\"PT123456789\\\" }],\\n  \\\"RO\\\": [\\n    { \\\"tax_id_code\\\": \\\"eu_vat\\\", \\\"example\\\": \\\"RO1234567891\\\" },\\n    { \\\"tax_id_code\\\": \\\"ro_tin\\\", \\\"example\\\": \\\"1234567890123\\\" }\\n  ],\\n  \\\"RU\\\": [\\n    { \\\"tax_id_code\\\": \\\"ru_inn\\\", \\\"example\\\": \\\"1234567891\\\" },\\n    { \\\"tax_id_code\\\": \\\"ru_kpp\\\", \\\"example\\\": \\\"123456789\\\" }\\n  ],\\n  \\\"SA\\\": [{ \\\"tax_id_code\\\": \\\"sa_vat\\\", \\\"example\\\": \\\"123456789012345\\\" }],\\n  \\\"SN\\\": [{ \\\"tax_id_code\\\": \\\"sn_ninea\\\", \\\"example\\\": \\\"12345672A2\\\" }],\\n  \\\"RS\\\": [{ \\\"tax_id_code\\\": \\\"rs_pib\\\", \\\"example\\\": \\\"123456789\\\" }],\\n  \\\"SG\\\": [\\n    { \\\"tax_id_code\\\": \\\"sg_gst\\\", \\\"example\\\": \\\"M12345678X\\\" },\\n    { \\\"tax_id_code\\\": \\\"sg_uen\\\", \\\"example\\\": \\\"123456789F\\\" }\\n  ],\\n  \\\"SK\\\": [{ \\\"tax_id_code\\\": \\\"eu_vat\\\", \\\"example\\\": \\\"SK1234567891\\\" }],\\n  \\\"SI\\\": [\\n    { \\\"tax_id_code\\\": \\\"eu_vat\\\", \\\"example\\\": \\\"SI12345678\\\" },\\n    { \\\"tax_id_code\\\": \\\"si_tin\\\", \\\"example\\\": \\\"12345678\\\" }\\n  ],\\n  \\\"ZA\\\": [{ \\\"tax_id_code\\\": \\\"za_vat\\\", \\\"example\\\": \\\"4123456789\\\" }],\\n  \\\"KR\\\": [{ \\\"tax_id_code\\\": \\\"kr_brn\\\", \\\"example\\\": \\\"123-45-67890\\\" }],\\n  \\\"ES\\\": [\\n    { \\\"tax_id_code\\\": \\\"es_cif\\\", \\\"example\\\": \\\"A12345678\\\" },\\n    { \\\"tax_id_code\\\": \\\"eu_vat\\\", \\\"example\\\": \\\"ESA1234567Z\\\" }\\n  ],\\n  \\\"SR\\\": [{ \\\"tax_id_code\\\": \\\"sr_fin\\\", \\\"example\\\": \\\"1234567890\\\" }],\\n  \\\"SE\\\": [{ \\\"tax_id_code\\\": \\\"eu_vat\\\", \\\"example\\\": \\\"SE123456789123\\\" }],\\n  \\\"CH\\\": [\\n    { \\\"tax_id_code\\\": \\\"ch_uid\\\", \\\"example\\\": \\\"CHE-123.456.789 HR\\\" },\\n    { \\\"tax_id_code\\\": \\\"ch_vat\\\", \\\"example\\\": \\\"CHE-123.456.789 MWST\\\" }\\n  ],\\n  \\\"TW\\\": [{ \\\"tax_id_code\\\": \\\"tw_vat\\\", \\\"example\\\": \\\"12345678\\\" }],\\n  \\\"TJ\\\": [{ \\\"tax_id_code\\\": \\\"tj_tin\\\", \\\"example\\\": \\\"123456789\\\" }],\\n  \\\"TZ\\\": [{ \\\"tax_id_code\\\": \\\"tz_vat\\\", \\\"example\\\": \\\"12345678A\\\" }],\\n  \\\"TH\\\": [{ \\\"tax_id_code\\\": \\\"th_vat\\\", \\\"example\\\": \\\"1234567891234\\\" }],\\n  \\\"TR\\\": [{ \\\"tax_id_code\\\": \\\"tr_tin\\\", \\\"example\\\": \\\"0123456789\\\" }],\\n  \\\"UG\\\": [{ \\\"tax_id_code\\\": \\\"ug_tin\\\", \\\"example\\\": \\\"1014751879\\\" }],\\n  \\\"UA\\\": [{ \\\"tax_id_code\\\": \\\"ua_vat\\\", \\\"example\\\": \\\"123456789\\\" }],\\n  \\\"AE\\\": [{ \\\"tax_id_code\\\": \\\"ae_trn\\\", \\\"example\\\": \\\"123456789012345\\\" }],\\n  \\\"GB\\\": [\\n    { \\\"tax_id_code\\\": \\\"eu_vat\\\", \\\"example\\\": \\\"XI123456789\\\" },\\n    { \\\"tax_id_code\\\": \\\"gb_vat\\\", \\\"example\\\": \\\"GB123456789\\\" }\\n  ],\\n  \\\"US\\\": [{ \\\"tax_id_code\\\": \\\"us_ein\\\", \\\"example\\\": \\\"12-3456789\\\" }],\\n  \\\"UY\\\": [{ \\\"tax_id_code\\\": \\\"uy_ruc\\\", \\\"example\\\": \\\"123456789012\\\" }],\\n  \\\"UZ\\\": [\\n    { \\\"tax_id_code\\\": \\\"uz_tin\\\", \\\"example\\\": \\\"123456789\\\" },\\n    { \\\"tax_id_code\\\": \\\"uz_vat\\\", \\\"example\\\": \\\"123456789012\\\" }\\n  ],\\n  \\\"VE\\\": [{ \\\"tax_id_code\\\": \\\"ve_rif\\\", \\\"example\\\": \\\"A-12345678-9\\\" }],\\n  \\\"VN\\\": [{ \\\"tax_id_code\\\": \\\"vn_tin\\\", \\\"example\\\": \\\"1234567890\\\" }],\\n  \\\"ZM\\\": [{ \\\"tax_id_code\\\": \\\"zm_tin\\\", \\\"example\\\": \\\"1004751879\\\" }],\\n  \\\"ZW\\\": [{ \\\"tax_id_code\\\": \\\"zw_tin\\\", \\\"example\\\": \\\"1234567890\\\" }]\\n}\",\"updated_at\":\"2025-04-02T13:43:25.518+02:00\"}}}}"
        },
        "http_version": "2",
        "status": {
          "code": 200,
          "message": "OK"
        },
        "headers": {
          "x-request-id": [
            "e684411b-b114-479a-93ea-ff6d4d016acd"
          ],
          "x-content-type-options": [
            "nosniff"
          ],
          "content-length": [
            "21513"
          ],
          "referrer-policy": [
            "strict-origin-when-cross-origin"
          ],
          "x-frame-options": [
            "SAMEORIGIN"
          ],
          "date": [
            "Mon, 23 Mar 2026 19:43:36 GMT"
          ],
          "vary": [
            "Accept,Origin,Accept-Encoding"
          ],
          "x-xss-protection": [
            "0"
          ],
          "x-permitted-cross-domain-policies": [
            "none"
          ],
          "cache-control": [
            "max-age=0, private, must-revalidate"
          ],
          "x-runtime": [
            "0.080536"
          ],
          "content-type": [
            "application/vnd.api+json; charset=utf-8"
          ],
          "etag": [
            "W/\"13848ed4c7bda751de0da2c2282e9c20\""
          ]
        }
      },
      "request": {
        "uri": "https://api.productive.io/api/v2/projects?filter[$op]=or&filter[0][status][eq][]=1&filter[1][$op]=and&filter[1][0][status][eq][]=2&page[number]=1&page[size]=5",
        "body": {
          "encoding": null,
          "string": ""
        },
        "method": "get",
        "headers": {
          "content-type": [
            "application/vnd.api+json"
          ]
        }
      },
      "recorded_at": "Mon, 23 Mar 2026 19:43:36 +0000"
    }
  ],
  "recorded_with": "rVCR 0.2.2"
}